{"_id":{"$oid":"5b7c5b4006eb5a05ecb9c55c"},"invcode":2,"updatedAt":{"$date":"2018-08-23T17:59:42.234Z"},"createdAt":{"$date":"2018-08-21T18:34:40.816Z"},"ready":true,"title":"LEONA","backers":0,"blurb":"LEONA es una cortadora de césped 100% solar e inalámbrica. Una alternativa innovadora y ecológica a la cortadora de césped actual.","capital":0,"step":1,"img":"Leona_1534876229904.jpg","thumbnail":"Leona_1534876229904_thumb.jpg","video":"","videoLink":"https://www.youtube.com/watch?v=CHSu1Sed-k8","embed":"https://www.youtube.com/embed/CHSu1Sed-k8","description":"\u003cdiv\u003e\u003cb\u003eLeona\u003c/b\u003e puede cortar el césped de la grama más resistente, superando ampliamente las prestaciones de las maquinas convencionales. Trabaja a baja tensión y cuenta con dispositivos para evitar todo tipo de accidente.No gastás por usarla, pues el 100% de su energía es absorbida de la radiación solar.Aportás al cuidado del medio ambiente ya que no emite ni consume energía convencional. Podrás cortar el césped por más de 2 horas sin necesidad de cables ni gasolina.\u003c/div\u003e\u003cdiv\u003eBusco financiamiento para poder formar un equipo de trabajo para\u0026nbsp; construir y vender a gran escala.\u003c/div\u003e","category":"Energia","location":"Buenos Aires","goal":900000,"adventureType":"impulse","slug":"leona","user":{"$oid":"5b1facb4379bdd04bc9c7111"},"keywords":["2"],"agreements":[],"reviews":[{"title":"Muy bueno","email":"hola@juampi.com","stars":5,"review":"Me encanto.","_id":{"$oid":"5b7ef60e7bbf5a05e3cdfff0"}}],"documents":[],"proposals":[],"charts":[{"title":"Gráfico de inversión","description":"Cómo será destinada tu inversión.","_id":{"$oid":"5b7c5c3206eb5a05ecb9c55e"},"charts":[{"amount":510000,"destiny":"Sueldos","_id":{"$oid":"5b7c5c3206eb5a05ecb9c562"}},{"amount":190000,"destiny":"Espacio de trabajo y sus costos","_id":{"$oid":"5b7c5c3206eb5a05ecb9c561"}},{"amount":120000,"destiny":"Materia prima ","_id":{"$oid":"5b7c5c3206eb5a05ecb9c560"}},{"amount":180000,"destiny":"Maquinaria","_id":{"$oid":"5b7c5c3206eb5a05ecb9c55f"}}]}],"participations":[{"index":1,"title":"","doc":"","fileInput":"","firstReturn":90,"price":1420,"participations":500,"percentage":30,"description":"Para impulsar Leona y poder fabricarla en serie necesito crear un equipo de trabajo, adquirir un lugar para realizarlo y materia prima.","_id":{"$oid":"5b7d62f66b5cad05f19a7415"}}],"rewards":[{"index":1,"title":"¡Cortadora Leona!","pledgeAmount":12000,"shippingTime":90,"description":"Si aportás $ 12.000 te llevás una cortadora LEONA!                                                                            ","quantity":15,"_id":{"$oid":"5b7c5dee06eb5a05ecb9c564"}}],"credits":[{"index":1,"pledgeAmount":1000,"return":30,"payments":12,"firstPayment":60,"quantity":10,"_id":{"$oid":"5b7c5d0106eb5a05ecb9c563"}}],"collaborators":[{"email":"palaciojuanp@gmail.com","_id":{"$oid":"5b7c5b4006eb5a05ecb9c55d"}}],"__v":5}
{"_id":{"$oid":"5b7c982106eb5a05ecb9c566"},"invcode":3,"updatedAt":{"$date":"2018-08-22T13:07:41.790Z"},"createdAt":{"$date":"2018-08-21T22:54:25.924Z"},"ready":true,"title":"Mala Jefa","backers":0,"blurb":"Publicación del libro. Veni a vivir la experiencia Merienda Literaria.","capital":0,"step":1,"img":"Mala Jefa_1534891093326.jpg","thumbnail":"Mala Jefa_1534891093326_thumb.jpg","video":"","videoLink":"https://www.youtube.com/watch?v=JgEVnwXJJrc","embed":"https://www.youtube.com/embed/JgEVnwXJJrc","description":"\u003cdiv\u003e¡Hola! Soy Melisa Baró. Desde chica me gusta mucho leer y siento que la literatura te acompaña en cada etapa de tu vida, que te hace sentir menos solo.\u003c/div\u003e\u003cdiv\u003eEscribí una novela corta que se titula “Mala Jefa”, en un principio inspirada por una experiencia difícil durante mis primeros años de trabajo y porque muchas amigas habían vivido experiencias similares.\u003c/div\u003e\u003cdiv\u003e\u003cbr\u003e\u003c/div\u003e\u003cdiv\u003eComo cuando atravesaba esa situación era chica y no tenía herramientas para resguardarme y manejarme mejor, decidí escribir esta novela corta porque quizá a otras personas las podía ayudar.\u0026nbsp;\u003c/div\u003e\u003cdiv\u003e\u003cbr\u003e\u003c/div\u003e\u003cdiv\u003eTe cuento en resumen de qué trata: La protagonista es una profesional que quería crecer y que admiraba a su jefa, hasta que se dio cuenta de cómo le hacía daño. Pero luego, ella tendrá la oportunidad de liderar, vivirá las presiones, tomará decisiones difíciles y se empezará a ver más parecida de lo que creía.\u003c/div\u003e\u003cdiv\u003e\u003cbr\u003e\u003c/div\u003e\u003cdiv\u003eIncluye sutilmente muchas de las herramientas que me sirvieron: aprender a \"venderme\" en entrevistas de trabajo, a transmitir mayor seguridad, a lidiar con algunas personas difíciles, a estar más conectada conmigo misma a través de la meditación.\u003c/div\u003e\u003cdiv\u003e\u003cbr\u003e\u003c/div\u003e\u003cdiv\u003e¿Cómo podés participar?\u003c/div\u003e\u003cdiv\u003e\u003cbr\u003e\u003c/div\u003e\u003cdiv\u003ePodés comprar el libro en la preventa y retirarlo en octubre. O podés adquirir el combo Merienda literaria y venir a la presentación del libro (al elegir esta opción, también te asegurás llevarte el libro impreso ese día). Si vivís en el interior, podés comprarlo y lo vas a recibir por correo en tu casa. Hay opciones para todos los presupuesto. ¡Tu pequeño aporte no sabes cuanta energía positiva me va a dar!\u003c/div\u003e\u003cdiv\u003e\u003cbr\u003e\u003c/div\u003e\u003cdiv\u003eEl dinero que consiga a partir de todos los que me apoyen en Invow, lo voy a usar para cuatro etapas:\u003c/div\u003e\u003cdiv\u003e\u003cbr\u003e\u003c/div\u003e\u003cdiv\u003e-Edición del libro, PAM publicaciones me va a ayudar.\u003c/div\u003e\u003cdiv\u003e\u003cbr\u003e\u003c/div\u003e\u003cdiv\u003e-Diseño, van a ser casi 100 páginas con letra cómoda para la lectura y una linda tapa.\u003c/div\u003e\u003cdiv\u003e\u003cbr\u003e\u003c/div\u003e\u003cdiv\u003e- Impresión\u003c/div\u003e\u003cdiv\u003e\u003cbr\u003e\u003c/div\u003e\u003cdiv\u003e- Difusión\u003c/div\u003e\u003cdiv\u003e\u003cbr\u003e\u003c/div\u003e\u003cdiv\u003eEspero que te guste el proyecto. Ante cualquier duda, escribime, ¡respondo rápido! Gracias :)\u003c/div\u003e","category":"Cine y TV","location":"Rio Negro","goal":150000,"adventureType":"impulse","slug":"mala-jefa","user":{"$oid":"5b1facb4379bdd04bc9c7111"},"keywords":["3"],"agreements":[],"reviews":[],"documents":[],"proposals":[],"charts":[{"title":"Áreas de destino de la inversión","description":"El dinero del financiamiento lo voy a distribuir en: Edición del libro, Diseño, Impresión y Difusión.","_id":{"$oid":"5b7c9c7a06eb5a05ecb9c575"},"charts":[{"amount":12000,"destiny":"Diseño","_id":{"$oid":"5b7c9c7a06eb5a05ecb9c579"}},{"amount":60000,"destiny":"Impresión","_id":{"$oid":"5b7c9c7a06eb5a05ecb9c578"}},{"amount":15000,"destiny":"Edición ","_id":{"$oid":"5b7c9c7a06eb5a05ecb9c577"}},{"amount":63000,"destiny":"Difusión y Publicidad","_id":{"$oid":"5b7c9c7a06eb5a05ecb9c576"}}]}],"participations":[{"index":1,"title":"","doc":"","fileInput":"","firstReturn":90,"price":720,"participations":100,"percentage":30,"description":"Forma parte de nuestro proyectos y compartamos las regalías.","_id":{"$oid":"5b7d601d6b5cad05f19a7414"}}],"rewards":[{"index":1,"title":"Libro Mala Jefa","pledgeAmount":500,"shippingTime":90,"description":"Si aportás con $500 te llevás el libro Mala Jefa!!!","quantity":20,"_id":{"$oid":"5b7d55d708df4c05d38a96fa"}},{"index":2,"title":"Libro Mala Jefa y dos erntradas","pledgeAmount":900,"shippingTime":90,"description":"Si aportas $ 900 te llevás el libro y además dos entradas para la fiesta de prelanzamiento!!!","quantity":20,"_id":{"$oid":"5b7d572c08df4c05d38a96fb"}}],"credits":[{"index":1,"pledgeAmount":2000,"return":20,"payments":10,"firstPayment":60,"quantity":25,"_id":{"$oid":"5b7c986406eb5a05ecb9c569"}}],"collaborators":[{"email":"palaciojuanp@gmail.com","_id":{"$oid":"5b7c982106eb5a05ecb9c568"}},{"email":"palaciojuanp@gmail.com","_id":{"$oid":"5b7c982106eb5a05ecb9c567"}}],"__v":13}
{"_id":{"$oid":"5b7c9d1306eb5a05ecb9c57b"},"invcode":4,"updatedAt":{"$date":"2018-08-22T18:11:20.473Z"},"createdAt":{"$date":"2018-08-21T23:15:31.558Z"},"ready":false,"title":"Paradox","backers":0,"blurb":"Plantillas para el calzado, dirigidas a personas que sufren la enfermedad de Párkinson","capital":0,"step":1,"img":"paradox_1534893243619.jpg","thumbnail":"paradox_1534893243619_thumb.jpg","video":"","videoLink":"https://www.youtube.com/watch?v=13WyThltrEE","embed":"https://www.youtube.com/embed/13WyThltrEE","description":"\u003cdiv\u003eEl Párkinson es una enfermedad neurodegenerativa que afecta a una parte del cerebro encargada de controlar el sistema motor. Según estadísticas, existen alrededor de 10 millones de personas que sufren esta enfermedad y hasta la actualidad no se ha encontrado una cura.\u003c/div\u003e\u003cdiv\u003eNuestro proyecto apunta a desarrollar un producto que mejora la calidad de vida de los pacientes, apaciguando las consecuencias del freezing de la marcha, uno de sus principales síntomas, brindándole independencia e invisibilidad social.\u003c/div\u003e\u003cdiv\u003eSe trata de un sistema que emite vibraciones rítmicas, que puede regularse a distintas velocidades, y ayuda al paciente a superar los trastornos motores producidos por la enfermedad.\u003c/div\u003e\u003cdiv\u003eNuestro objetivo es que funcione de forma inalámbrica y se regule a través de un reloj pulsera.\u003c/div\u003e\u003cdiv\u003e\u003cbr\u003e\u003c/div\u003e","category":"Salud","location":"La Plata","goal":1200000,"adventureType":"impulse","slug":"paradox","user":{"$oid":"5b1facb4379bdd04bc9c7111"},"keywords":["4"],"agreements":[],"reviews":[],"documents":[],"proposals":[],"charts":[{"title":"Gráfico Paradox","description":"Para fábricar las plantillas Páradox a gran escala y acorde al financiamiento que buscamos creamos éste grafico de torta a modo de hacer visible nuestro plan.","_id":{"$oid":"5b7c9f7306eb5a05ecb9c580"},"charts":[{"amount":600000,"destiny":"Materia Prima","_id":{"$oid":"5b7c9f7306eb5a05ecb9c584"}},{"amount":400000,"destiny":"Sueldos","_id":{"$oid":"5b7c9f7306eb5a05ecb9c583"}},{"amount":180000,"destiny":"Espacio de trabajo","_id":{"$oid":"5b7c9f7306eb5a05ecb9c582"}},{"amount":20000,"destiny":"Gastos Varios","_id":{"$oid":"5b7c9f7306eb5a05ecb9c581"}}]}],"participations":[{"index":1,"title":"","doc":"","fileInput":"","firstReturn":90,"price":880,"participations":500,"percentage":40,"description":"Tenemos como objetivo que Paradox llegue a la mayor cantidad posible de personas que padezcan ésta enfermedad. Para eso necesitamos hacerlas en serie.  Hasta el 40 % del proyecto cambiamos participación como socio a cambio de financiamiento.","_id":{"$oid":"5b7d658d6b5cad05f19a741b"}}],"rewards":[{"index":3,"title":"Plantillas,reloj y 2 entradas","pledgeAmount":7000,"shippingTime":90,"description":"Además de las plantillas y el reloj tenés dos entradas para la charla Ted a la que fuimos invitados!","quantity":10,"_id":{"$oid":"5b7d64666b5cad05f19a741a"}},{"index":2,"title":"Plantillas Paradox más reloj","pledgeAmount":6000,"shippingTime":90,"description":"Si aportás con $6000 te llevas un par de plantillas Paradox con su reloj!","quantity":15,"_id":{"$oid":"5b7da74859c76a05d0dbfc31"}}],"credits":[{"index":1,"pledgeAmount":500,"return":30,"payments":6,"firstPayment":90,"quantity":500,"_id":{"$oid":"5b7c9d5306eb5a05ecb9c57d"}}],"collaborators":[{"email":"palaciojuanp@gmail.com","_id":{"$oid":"5b7c9d1306eb5a05ecb9c57c"}}],"__v":10}
{"_id":{"$oid":"5b7d662d6b5cad05f19a741f"},"invcode":6,"updatedAt":{"$date":"2018-08-22T13:38:59.872Z"},"createdAt":{"$date":"2018-08-22T13:33:33.185Z"},"ready":true,"title":"Prócer","backers":0,"blurb":"Dispositivo que transforma  texto en voz.","capital":0,"step":1,"img":"Prócer_1534944707930.jpg","thumbnail":"Prócer_1534944707930_thumb.jpg","video":"","videoLink":"https://www.youtube.com/watch?v=MZPzU4uqUV0","embed":"https://www.youtube.com/embed/MZPzU4uqUV0","description":"\u003cdiv\u003e\u003cb\u003ePrócer\u003c/b\u003e es un dispositivo del tamaño de un celular que adquiere una imagen y convierte todo lo que es texto en voz; procesa la información y clasifica si es texto (incluye controles que permite volver a escuchar párrafos, generar resúmenes, grabar o exportarlo a un PDF) o factura de servicios; también incluye una cámara para reconocer la denominación de billetes.\u003c/div\u003e\u003cdiv\u003e\u003cbr\u003e\u003c/div\u003e","category":"Tecnología","location":"San Luis","goal":500000,"adventureType":"impulse","slug":"procer","user":{"$oid":"5b1facb4379bdd04bc9c7111"},"keywords":["6"],"agreements":[],"reviews":[],"documents":[],"proposals":[],"charts":[{"title":"Prócer Gráfico","description":"Necesitamos el financiamiento para:","_id":{"$oid":"5b7d66c56b5cad05f19a7421"},"charts":[{"amount":280000,"destiny":"Equipo de trabajo","_id":{"$oid":"5b7d66c56b5cad05f19a7424"}},{"amount":150000,"destiny":"Materiales de trabajo y materia prima","_id":{"$oid":"5b7d66c56b5cad05f19a7423"}},{"amount":70000,"destiny":"Gastos varios","_id":{"$oid":"5b7d66c56b5cad05f19a7422"}}]}],"participations":[{"index":1,"title":"","doc":"","fileInput":"","firstReturn":null,"price":1000,"participations":500,"percentage":30,"description":"Queremos pegar un salto con Prócer y para generar el impulso inicial ofrecemos hasta el 30% a cambio de financiamiento.","_id":{"$oid":"5b7d67736b5cad05f19a7425"}}],"rewards":[],"credits":[],"collaborators":[{"email":"palaciojuanp@gmail.com","_id":{"$oid":"5b7d662d6b5cad05f19a7420"}}],"__v":2}
{"_id":{"$oid":"5b7d685f6b5cad05f19a7427"},"invcode":7,"updatedAt":{"$date":"2018-08-22T13:47:13.098Z"},"createdAt":{"$date":"2018-08-22T13:42:55.291Z"},"ready":true,"title":"Rastreador Ocular","backers":0,"blurb":"Mouse para personas con discapacidad motora.","capital":0,"step":1,"img":"Rastreador ocular_1534945207066.jpg","thumbnail":"Rastreador ocular_1534945207066_thumb.jpg","video":"","videoLink":"https://www.youtube.com/watch?v=uCu7DYtcQYM","embed":"https://www.youtube.com/embed/uCu7DYtcQYM","description":"\u003cdiv\u003eMouse especial para personas con discapacidades motoras que consiste en unos anteojos con una cámara que detecta el movimiento de la pupila, lo que permite desplazar el cursor con la vista y que tiene un costo de producción muy por debajo del valor de mercado. El precio en el mercado va desde los US$3.500 en adelante y nosotros lo desarrollamos con menos de US$100.\u0026nbsp;\u003c/div\u003e\u003cdiv\u003eMe encuentro en la búsqueda de financiamiento para poder optimizar la estética del prototipo, darle más funciones, añadir otra cámara de alta definición y un dispositivo de montaje superficial para que todo sea más compacto\u003c/div\u003e\u003cdiv\u003e\u003cbr\u003e\u003c/div\u003e","category":"Tecnología","location":"Chubut","goal":1000000,"adventureType":"impulse","slug":"rastreador-ocular","user":{"$oid":"5b1facb4379bdd04bc9c7111"},"keywords":["7"],"agreements":[],"reviews":[],"documents":[],"proposals":[],"charts":[],"participations":[{"index":1,"title":"","doc":"","fileInput":"","firstReturn":null,"price":4600,"participations":200,"percentage":40,"description":"Queremos formar un equipo de trabajo para trabajar en el Rastreador en cuestiones estéticas y de desarrollo para una mejor calidad y comodidad. Además de poder fabricarlo en masa. ","_id":{"$oid":"5b7d69616b5cad05f19a742a"}}],"rewards":[{"index":1,"title":"Rastreador Ocular","pledgeAmount":4000,"shippingTime":90,"description":"Si aportás $ 4000 tenés tu Rastreador Ocular a cambio.","quantity":20,"_id":{"$oid":"5b7d68b96b5cad05f19a7429"}}],"credits":[],"collaborators":[{"email":"palaciojuanp@gmail.com","_id":{"$oid":"5b7d685f6b5cad05f19a7428"}}],"__v":2}
{"_id":{"$oid":"5b7d6a176b5cad05f19a742c"},"invcode":8,"updatedAt":{"$date":"2018-08-22T13:58:00.784Z"},"createdAt":{"$date":"2018-08-22T13:50:15.346Z"},"ready":true,"title":"Uno Más","backers":0,"blurb":"Compañia La Sonante necesita de tu ayuda para poder financiar su proximo espectaculo teatral: Uno Más.","capital":0,"step":1,"img":"Uno Más_1534945684071.jpeg","thumbnail":"Uno Más_1534945684072_thumb.jpeg","video":"","videoLink":"https://www.youtube.com/watch?v=r4G6n_jOhXk","embed":"https://www.youtube.com/embed/r4G6n_jOhXk","description":"Que hacemos y porque necesitamos tu aporte\u0026nbsp; \u0026nbsp;Somos una compañia teatral que esta trabajando en su nuevo espectáculo, Uno Mas. Necesitamos de la colaboración económica para poder solventar los costos de la obra. Durante dos años, cuando empezamos este proyecto, realizamos producciones con el objetivo de generar nuestros propios ingresos. Organizamos fiestas, cenas gourmet a puertas cerradas y aportes personales. Con todo este esfuerzo, al dia de hoy hemos podido costear los gastos de la sala de ensayo, la utilería, las proyecciones y la música original. De todas maneras aun queda mucho por concretar. Necesitamos terminar de armar la escenografía, confeccionar el vestuario y realizar la impresión de los programa y volantes de mano.\u0026nbsp; \u0026nbsp;Quienes somos\u0026nbsp; \u0026nbsp;La Sonante es una compañía de teatro que se forma en el año 2013, pero que trabaja junta desde el 2009. Surgio de la necesidad de generar un espacio para la investigación y desarrollo de proyectos artísticos. Un grupo que tiene continuidad en el tiempo, teniendo como antecedentes el espectaculo teatral Un instante cualquiera. Actualmente la compañía está conformada por un cuerpo de actores, directores, docentes de teatro, músicos y profesionales del lenguaje audiovisual.\u0026nbsp; \u0026nbsp;A su vez se hacen interactuar otras profesiones y ocupaciones de sus integrantes que no necesariamente forman parte del espectáculo artístico en sí mismo, pero que son necesarias y funcionales para la producción del mismo. Hablamos de coordinar, cooperar y producir también desde otros conocimientos: diseño gráfico, fotografía, iluminación, la gastronomía, la animación.\u0026nbsp; \u0026nbsp; ¿De que trata Uno Mas?\u0026nbsp; \u0026nbsp;Sara es una radioaficionada con su propio programa diario, ella dice en un pasaje de su primer monólogo: “El tema de hoy son la palabras”. A partir de allí se abren en la obra múltiples posibilidades de abordaje al tema comunicacional, al valor de las palabras y del cuerpo que las porta. La obra va poniendo en juego diversos eslabones de una cadena de vínculos que se van abriendo como ventanas de un Chat y juegan con la inmediatez tecnológica, los clichés urbanos, los enlaces sociales que se generan y sobre todo con el cuestionamiento acerca de que si en la era de la comunicación y la revolución tecnológica, estamos realmente comunicados. Hablamos de pequeñas grandes historias y de los vínculos que se pueden\u0026nbsp; construir y sostener. De lo efímero, y al mismo tiempo de lo imprescindible que resulta ser Uno Más en la megalópolis posmoderna y tecnologizada.\u0026nbsp; \u0026nbsp; \u0026nbsp;¿Cuándo y dónde se estrena la obra?\u0026nbsp; \u0026nbsp;La obra tiene fecha de estreno para Septiembre del corriente año, en el Teatro del Borde, en el corazon de San Telmo.\u0026nbsp; \u0026nbsp;¿Puedo colaborar aunque no tenga tarjeta de crédito?\u0026nbsp; \u0026nbsp;Por supuesto! es muy fácil: seguí las indicaciones de Mercado Pago, donde vas a poder imprimir el cupón y pagar en cualquier Banelco, Pago Fácil o Rapipago, de la misma manera que pagas tu servicios.\u0026nbsp; \u0026nbsp;¿Cómo se entregan las recompensas?\u0026nbsp; \u0026nbsp;Si estás en Buenos Aires te invitamos a retirarlas por el centro, o bien coordinamos para que las pases a buscar por otra parte. Si no, te la enviamos por correo.\u0026nbsp; \u0026nbsp; \u0026nbsp;Importante: El costo de los envíos por correo NO está incluido en las recompensas.\u0026nbsp; \u0026nbsp;Ficha técnica:\u0026nbsp; \u0026nbsp;Elenco: María Paola Cappellari, Agustín Scipione, Magdalena Echavarría, Matías Castilla, Mariana Elisa Dias, Luis Dartiguelongue, Valentina Wojciechowski / Dramaturgia: Mariana Elisa Dias / Diseño escenográfico: Patricio Curti / Vestuario: Judith Schmulewitz / Composición musical y sonido: Nicolás Diab / Diseño de imagen y producción visual: Natalia Fernández y Agustín Scipione / Iluminación: Natalia Fernández /\u0026nbsp; Diseño gráfico: Agustín Scipione / Registros en videos: Lucía Fink / Asistencia en movimiento y coreografía: Soledad Alloni / Asistencia de Dirección: Dolores Perez Demaria / Dirección: Uki Cappellari\u0026nbsp; \u0026nbsp;www.lasonante.blogspot.com.ar\u0026nbsp;\u0026nbsp;","category":"Cine y TV","location":"Rosario","goal":25000,"adventureType":"impulse","slug":"uno-mas","user":{"$oid":"5b1facb4379bdd04bc9c7111"},"keywords":["8"],"agreements":[],"reviews":[],"documents":[],"proposals":[],"charts":[],"participations":[],"rewards":[{"index":1,"title":" Dos entradas para Uno Más!","pledgeAmount":500,"shippingTime":90,"description":"Te llevás dos entradas para la obra Uno Más! ","quantity":15,"_id":{"$oid":"5b7d6b446b5cad05f19a7430"}},{"index":2,"title":"Uno Más de PLATA","pledgeAmount":1000,"shippingTime":90,"description":"Si ponés $1000 tenés dos entradas para la obra y dos entradas para la fiesta pre-estreno!!","quantity":10,"_id":{"$oid":"5b7d6b1b6b5cad05f19a742f"}},{"index":3,"title":"Uno Más de ORO BLANCO","pledgeAmount":1750,"shippingTime":90,"description":"Si aportás con eso te convertís en nuestro ídolo eterno además de tener dos entradas para la obra y para la fiesta, dos consumisiones en la fiesta y mencionarte en el programa de mano!","quantity":10,"_id":{"$oid":"5b7d6be86b5cad05f19a7431"}}],"credits":[],"collaborators":[{"email":"palaciojuanp@gmail.com","_id":{"$oid":"5b7d6a176b5cad05f19a742d"}}],"__v":4}
