[
    {
	"fullName": "Pedro el escamozo",
	"identification": 35413939,
	"email": "hola@hola.com",
	"phone": 2914376489,
	"resume": "hola.pdf",
	"seniority": "junior", //senior //guru
	"blurb": "Descripción breve del perfil",
	"status": "approved",
        "user": "id"	
    }
]
